module gorm-getting-started

go 1.18

require (
	github.com/jinzhu/inflection v1.0.0 // indirect
	github.com/jinzhu/now v1.1.5 // indirect
	github.com/mattn/go-sqlite3 v1.14.16 // indirect
	gorm.io/driver/sqlite v1.4.3 // indirect
	gorm.io/gorm v1.24.0 // indirect
)
